This is BibTeX, Version 0.99c (Web2C 7.5.6)
The top-level auxiliary file: main.aux
The style file: elsart-num.bst
Database file #1: literature.bib
You've used 3 entries,
            2336 wiz_defined-function locations,
            589 strings with 4624 characters,
and the built_in function-call counts, 444 in all, are:
= -- 34
> -- 12
< -- 0
+ -- 6
- -- 3
* -- 28
:= -- 81
add.period$ -- 3
call.type$ -- 3
change.case$ -- 3
chr.to.int$ -- 0
cite$ -- 3
duplicate$ -- 21
empty$ -- 51
format.name$ -- 3
if$ -- 93
int.to.chr$ -- 0
int.to.str$ -- 3
missing$ -- 1
newline$ -- 15
num.names$ -- 3
pop$ -- 5
preamble$ -- 1
purify$ -- 0
quote$ -- 0
skip$ -- 9
stack$ -- 0
substring$ -- 21
swap$ -- 3
text.length$ -- 0
text.prefix$ -- 0
top$ -- 0
type$ -- 0
warning$ -- 0
while$ -- 4
width$ -- 4
write$ -- 31
